{
    "payload":{
        "type": "object",
        "required": ["external_id", "label", "numero_telefono"],
        "properties": {
            "external_id": {
                "type": "string",
                "pattern": "^[a-f0-9]+$",
                "maxLength": 30 
            },
            "label": {
                "type": "string"
            },
            "numero_telefono": {
                "type": "string",
                "patter": "^[0-9]+$",
                "minLength": 10
            }
        }
    }
}