{
    "payload": {
        "type": "object",
        "required": ["external_id", "label", "longitud_vuelta"],
        "properties": {
            "external_id": {
                "type": "string",
                "pattern": "^[a-f0-9]+$",
                "maxLength": 20
            },
            "label": {
                "type": "string",
                "maxLength": 50
            },
            "longitud_vuelta": {
                "type": "number"
            },
            "reglas_operacion": {
                "type": "object"
            },
            "estaciones": {
                "type": "array",
                "items": {
                    "type": "object",
                    "required": ["latitud", "longitud","estacion"],
                    "properties": {                      
                        "estacion": {
                            "type": "string"                          
                        },
                        "latitud": {
                            "type": "number"
                        },
                        "longitud": {
                            "type": "number"
                        }
                    }
                }
            },
           "recorrido": {
                "type": "array",
                "items": {
                    "type": "object",
                    "required": ["latitud", "longitud"],
                    "properties": {                                            
                        "latitud": {
                            "type": "number"
                        },
                        "longitud": {
                            "type": "number"
                        }
                    }
                }
            }
        }
    }
}