{
    "payload": {
        "type": "object",
        "properties": {
            "encabezado": {
                "type": "object",
                "required": ["id_vehiculo"],
                "properties": {
                    "id_vehiculo": {
                        "type": "integer"
                    },
                    "fecha": {
                        "type": "string",
                        "format": "date"
                    },
                    "hora":{
                        "type": "string",
                        "format": "time"
                    }                
                },
                "relations": {
                    "vehiculo": {
                        "type": "hasOne",
                        "related": {
                            "name": "vehiculos",
                            "type": "cat"
                        },
                        "localKey": "id_vehiculo",
                        "foreignKey": "id"
                    }
                }
            },
            "recorrido": {
                "type": "array",
                "items": {
                    "type": "object",
                    "required": ["latitud", "longitud","hora"],
                    "properties": {
                        "id_dispositivo": {
                            "type": "integer"
                        },
                        "id_ruta": {
                            "type": "integer"
                        },
                        "id_operador": {
                            "type": "integer"
                        },
                        "id_vehiculo": {
                            "type": "integer"
                        },
                        "hora": {
                            "type": "string",
                            "format": "time"
                        },
                        "latitud": {
                            "type": "number"
                        },
                        "longitud": {
                            "type": "number"
                        }
                    }
                }
            }
        }
    }
}