{
    "payload": {
        "type": "object",
        "properties": {
            "encabezado": {
                "type": "object",
                "required": ["id_vehiculo", "id_dispositivo", "id_operador", "id_ruta", "folio_transaccion", "fecha_hora", "monto", "tipo"],
                "properties":{
                    "id_vehiculo": {
                        "type": "integer"
                    },
                    "id_dispositivo": {
                        "type": "integer"
                    },
                    "id_operador": {
                        "type": "integer"
                    },
                    "id_ruta": {
                        "type": "integer"
                    },
                    "folio_transaccion": {
                        "type": "string"
                    },
                    "fecha_hora": {

                        "type": "string",
                        "format": "mysql-date-time"
                    },
                    "monto":{
                        "type": "number"
                    },
                    "tipo": {
                        "enum": ["VENTA", "VENTA_INCOMPLETA"]
                    },
                    "latitud": {
                        "type": "number"
                    },
                    "longitud":{
                        "type": "number"
                    },
                    "fecha_hora_servidor":{
                        "type": "string",
                        "format":"mysql-date-time"
                    }
                    
                },
                "relations": {
                    "vehiculo": {
                        "type": "hasOne",
                        "related": {
                            "name": "vehiculos",
                            "type": "cat"
                        },
                        "localKey": "id_vehiculo",
                        "foreignKey": "id"
                    },
                    "dispositivo": {
                        "type": "hasOne",
                        "related": {
                            "name": "dispositivos",
                            "type": "cat"
                        },
                        "localKey": "id_dispositivo",
                        "foreignKey": "id"
                    },
                    "operador": {
                        "type": "hasOne",
                        "related": {
                            "name": "operadores",
                            "type": "cat"
                        },
                        "localKey": "id_operador",
                        "foreignKey": "id"
                    },
                    "ruta": {
                        "type": "hasOne",
                        "related": {
                            "name": "rutas",
                            "type": "cat"
                        },
                        "localKey": "id_ruta",
                        "foreignKey": "id"
                    }
                }
            }
        }
    }
}